<svg xmlns="http://www.w3.org/2000/svg" xmlns:xlink="http://www.w3.org/1999/xlink" width="20" height="20" viewBox="0 0 20 20">
  <defs>
    <clipPath id="clip-path">
      <rect width="20" height="20" fill="none"/>
    </clipPath>
  </defs>
  <g id="arrow-down-black" clip-path="url(#clip-path)">
    <rect id="Rectangle_2085" data-name="Rectangle 2085" width="20" height="20" fill="none"/>
    <path id="Path_1250" data-name="Path 1250" d="M0,0,5.117,5.5,0,10.7" transform="translate(15.696 8) rotate(90)" fill="none" stroke="#000" stroke-width="1"/>
  </g>
</svg>
